Ex2 - Constrained randomisation & coverage/Lab7/test-ex2-1-check2.log
# vsim -assertdebug -coverage -c test_ex2_1 -l test-ex2-1-check2.log -do " run -all; quit" 
# Start time: 02:01:57 on Feb 28,2019
# ** Note: (vsim-3813) Design is being optimized due to module recompilation...
# ** Note: (vopt-143) Recognized 1 FSM in module "ex2_1(fast)".
# //  Questa Sim-64
# //  Version 10.5c linux_x86_64 Jul 20 2016
# //
# //  Copyright 1991-2016 Mentor Graphics Corporation
# //  All Rights Reserved.
# //
# //  QuestaSim and its associated documentation contain trade
# //  secrets and commercial or financial information that are the property of
# //  Mentor Graphics Corporation and are privileged, confidential,
# //  and exempt from disclosure under the Freedom of Information Act,
# //  5 U.S.C. Section 552. Furthermore, this information
# //  is prohibited from disclosure under the Trade Secrets Act,
# //  18 U.S.C. Section 1905.
# //
# Loading sv_std.std
# Loading work.test_ex2_1(fast)
# Loading work.ex2_1(fast)
# Loading work.ex2_1_property(fast)
#  run -all
#          5  rst=0 clk=1 validi=1 DIN=1 valido=x DOUT=x
#         15  rst=1 clk=1 validi=1 DIN=1 valido=0 DOUT=0
#         25  rst=0 clk=1 validi=1 DIN=1 valido=0 DOUT=0
#         35  rst=0 clk=1 validi=0 DIN=2 valido=0 DOUT=0
#         45  rst=0 clk=1 validi=1 DIN=3 valido=0 DOUT=0
#         55  rst=0 clk=1 validi=0 DIN=4 valido=0 DOUT=0
#         65  rst=0 clk=1 validi=1 DIN=5 valido=0 DOUT=0
#         75  rst=0 clk=1 validi=1 DIN=6 valido=0 DOUT=0
#         85  rst=0 clk=1 validi=0 DIN=7 valido=0 DOUT=0
#         95  rst=0 clk=1 validi=0 DIN=8 valido=0 DOUT=0
#        105  rst=0 clk=1 validi=1 DIN=9 valido=0 DOUT=0
#        115  rst=0 clk=1 validi=1 DIN=10 valido=0 DOUT=0
#        125  rst=0 clk=1 validi=1 DIN=11 valido=0 DOUT=0
#        135  rst=0 clk=1 validi=0 DIN=12 valido=1 DOUT=101
#        135  		VALIDO 1 CHECK PASS:: rst_=0 data_out=101 
# 
#        145  rst=0 clk=1 validi=1 DIN=13 valido=0 DOUT=101
#        155  rst=0 clk=1 validi=1 DIN=14 valido=0 DOUT=101
#        165  rst=0 clk=1 validi=1 DIN=15 valido=0 DOUT=101
#        175  rst=0 clk=1 validi=1 DIN=16 valido=1 DOUT=197
#        175  		VALIDO 1 CHECK PASS:: rst_=0 data_out=226 
# 
#        185  rst=0 clk=1 validi=1 DIN=17 valido=1 DOUT=226
#        185  		VALIDO 1 CHECK PASS:: rst_=0 data_out=257 
# 
#        195  rst=0 clk=1 validi=0 DIN=18 valido=1 DOUT=257
#        195  		VALIDO 1 CHECK PASS:: rst_=0 data_out=257 
# 
#        205  rst=0 clk=1 validi=1 DIN=19 valido=0 DOUT=257
#        215  rst=0 clk=1 validi=1 DIN=20 valido=0 DOUT=257
#        225  rst=0 clk=1 validi=1 DIN=21 valido=0 DOUT=257
#        235  rst=0 clk=1 validi=1 DIN=22 valido=1 DOUT=401
#        235  		VALIDO 1 CHECK PASS:: rst_=0 data_out=442 
# 
#        245  rst=0 clk=1 validi=0 DIN=23 valido=1 DOUT=442
#        245  		VALIDO 1 CHECK PASS:: rst_=0 data_out=442 
# 
#        255  rst=0 clk=1 validi=0 DIN=24 valido=0 DOUT=442
#        265  rst=0 clk=1 validi=1 DIN=25 valido=0 DOUT=442
#        275  rst=0 clk=1 validi=1 DIN=26 valido=0 DOUT=442
#        285  rst=0 clk=1 validi=1 DIN=27 valido=0 DOUT=442
#        295  rst=0 clk=1 validi=1 DIN=28 valido=1 DOUT=677
#        295  		VALIDO 1 CHECK PASS:: rst_=0 data_out=730 
# 
#        305  rst=0 clk=1 validi=1 DIN=29 valido=1 DOUT=730
#        305  		VALIDO 1 CHECK PASS:: rst_=0 data_out=785 
# 
#        315  rst=0 clk=1 validi=1 DIN=30 valido=1 DOUT=785
#        315  		VALIDO 1 CHECK PASS:: rst_=0 data_out=842 
# 
#        325  rst=0 clk=1 validi=0 DIN=31 valido=1 DOUT=842
#        325  		VALIDO 1 CHECK PASS:: rst_=0 data_out=842 
# 
#        335  rst=0 clk=1 validi=0 DIN=31 valido=0 DOUT=842
# ** Note: Data structure takes 5126272 bytes of memory
#          Process time 0.00 seconds
#          $finish    : test-ex2-1.sv(28)
#    Time: 335 ns  Iteration: 1  Instance: /test_ex2_1
# End time: 02:01:59 on Feb 28,2019, Elapsed time: 0:00:02
# Errors: 0, Warnings: 0
